r099pc01;
r099pc10;20.04
r099pc11;20.04
r099pc12;10
r099pc20;11
r099pc21;11
r099pc22;pve
r099pc30;11
r099pc31;pve
r099pc32;pve
r099pc40;24.04
r050pc01;CD96C63
r050pc02;7B96C63
r050pc03;BZ86C63
r050pc04;9D96C63
r050pc05;C896C63
r050pc06;FC96C63
r050pc07;D896C63
r060pc01;CND01317K2
r060pc02;CND013144B
r060pc03;CND02219HM
r060pc04;CND01317F5
r060pc05;CND0131B0T
r060pc06;CND0131577
r060pc07;CND02219GH
r060pc08;CND01317CK
r060pc09;CND02177KW
r060pc10;CND01317TR
r060pc11;CND013140H
r060pc12;CND02177PG
r060pc13;CND013194T
r060pc14;CND01317ZZ
r060pc15;CND02219F0
r060pc16;CND02219FQ
r060pc17;CND02219HL
r060pc18;CND02177M2
r060pc19;CND01317Y8
r060pc20;CND02219DZ
r060pc21;CND02219GZ
r060pc22;CND02177KB
r060pc23;CND02219F3
r060pc24;CND01317B2
r060pc25;CND02219HJ
r060pc26;CND02177l5
r060pc27;CND0131DFQ
r060pc28;CND02177KK
r060pc29;CND02219G1
r060pc30;CND013155Z
r060pc31;CND013146Z
r060pc32;CND01317FL
r060pc33;CND01318B9
r060pc34;CND02177PN
r060pc35;CND02177LB
r060pc36;CND01318ZY
r060pc37;CND0131898
r060pc38;CND013179S
r060pc39;CND02219FG
r060pc40;CND01317L2
r060pc41;CND01317C4
r070pc01;PF1V9CQT
r070pc02;PF1WCNSS
r070pc03;PF1WDF21
r070pc04;PF1WCRON
r070pc05;PF1V9888
r052pc01;
r080pc01;ChO
r081pc01;neuer
r082pc01;
r086pc01;neuer
r001pc01;winpc
r002pc01;Linux
r007pc01;Geraetename
r009pc01;
r009pc02;
r009pc03;
r009pc04;
r009pc05;
r009pc06;
r009pc07;
r009pc08;
r009pc09;
r009pc10;
r009pc11;
r009pc12;
r009pc13;
r009pc14;
r013pc01;winpc
r022pc01;winpc
r023pc01;winpc
r024pc01;winpc
r025pc01;winpc
r026pc01;winpc
r101pc01;winpc
r106pc01;PC
r110pc01;winpc
r110pc02;winpc
r110pc03;winpc
r110pc04;neuer
r110pc05;winpc
r110pc06;neuer
r110pc20;neuer
r110pc21;neuer
r110pc22;neuer
r118pc01;winpc
r119pc01;winpc
r120pc01;winpc
r121pc01;winpc
r122pc01;winpc
r123pc01;Linux
r124pc01;
r201pc01;winpc
r202pc01;winpc
r205pc01;winpc
r207pc01;winpc
r208pc01;winpc
r209pc01;winpc
r216pc01;winpc
r217pc01;winpc
r218pc01;winpc
r219pc01;winpc
r220pc01;winpc
r221pc01;winpc
r222pc01;
r301pc01;winpc
r302pc01;winpc
r302pc02;
r302pc03;
r305pc01;winpc
r307pc01;winpc
r308pc01;winpc
r308pc02;
r308pc03;
r309pc01;winpc
r310pc01;winpc
r311pc01;winpc
r316pc01;winpc
r316pc02;
r317pc01;winpc
r317pc02;
r318pc01;winpc
r319pc01;winpc
r320pc01;winpc
r321pc01;winpc
r322pc01;winpc
r402pc01;HP
r403pc01;linux
r404pc01;PC
r407pc01;
r407pc02;
r407pc03;
r407pc04;
r407pc05;
r407pc06;
r407pc07;
r407pc08;
r407pc09;
r407pc10;
r407pc11;
r407pc12;
r407pc13;
r407pc14;
r407pc15;
r407pc16;
r407pc17;
r407pc18;
r407pc19;
r407pc20;
r407pc21;
r407pc22;
r407pc23;
r407pc24;
r407pc25;
r407pc30;
r408pc01;
r408pc02;
r408pc03;
r408pc04;
r408pc05;
r408pc06;
r408pc07;
r408pc08;
r408pc09;
r408pc10;
r408pc11;
r408pc12;
r408pc13;
r408pc14;
r408pc15;
r408pc16;
r408pc17;
r408pc18;
r408pc19;
r408pc20;
r408pc21;
r408pc22;
r408pc23;
r408pc24;
r408pc25;
r408pc30;
